{
  "module": {
    "id": 9,
    "ip": "10.10.10.9",
    "name": "9",
    "enable": true,
    "items": [
      {
        "id": 87,
        "name": "ПВО",
        "block": "OTHER",
        "states": ["выключено", "норма", "не норма", "авария"],
        "registers": [
          {
            "address": 1,
            "type": "светодиод",
            "description": "окна зданий",
            "scenarioStates": ["выкл","горит","мигает","выкл"]
          },
          {
            "address": 2,
            "type": "адресный светодиод 5В",
            "description": "индикация объекта",
            "scenarioStates": ["выкл","зеленый (мигает)","желтый (мигает)","красный (мигает)"]
          },
          {
            "address": 3,
            "type": "светодиод",
            "description": "свет на смотровых",
            "scenarioStates": ["выкл","выкл","выкл","горит"]
          },
          {
            "address": 4,
            "type": "светодиод",
            "description": "мачты освещения",
            "scenarioStates": ["выкл","горит","мигает","выкл"]
          }
        ]
      },
      {
        "id": 88,
        "name": "ЛЭП (отрезок №05)",
        "block": "ENERGY",
        "states": ["выключено", "норма", "не норма", "авария"],
        "registers": [
          {
            "address": 5,
            "type": "светодиод",
            "description": "ЛЭП (отрезок №05)",
            "scenarioStates": ["выкл","горит","мигает","выкл"]
          }
        ]
      },
      {
        "id": 89,
        "name": "ЛЭП (отрезок №16)",
        "block": "ENERGY",
        "states": ["выключено", "норма", "не норма", "авария"],
        "registers": [
          {
            "address": 6,
            "type": "светодиод",
            "description": "ЛЭП (отрезок №16)",
            "scenarioStates": ["выкл","горит","мигает","выкл"]
          }
        ]
      },
      {
        "id": 90,
        "name": "ЛЭП (отрезок №17)",
        "block": "ENERGY",
        "states": ["выключено", "норма", "не норма", "авария"],
        "registers": [
          {
            "address": 7,
            "type": "светодиод",
            "description": "ЛЭП (отрезок №17)",
            "scenarioStates": ["выкл","горит","мигает","выкл"]
          }
        ]
      },
      {
        "id": 91,
        "name": "ЛЭП (отрезок №18)",
        "block": "ENERGY",
        "states": ["выключено", "норма", "не норма", "авария"],
        "registers": [
          {
            "address": 8,
            "type": "светодиод",
            "description": "ЛЭП (отрезок №18)",
            "scenarioStates": ["выкл","горит","мигает","выкл"]
          }
        ]
      },
      {
        "id": 92,
        "name": "НКС",
        "block": "OIL",
        "states": ["выключено", "норма", "не норма", "авария"],
        "registers": [
          {
            "address": 9,
            "type": "адресный светодиод 5В",
            "description": "индикация объекта",
            "scenarioStates": ["выкл","зеленый (мигает)","желтый (мигает)","красный (мигает)"]
          },
          {
            "address": 10,
            "type": "светодиод",
            "description": "мачты освещения",
            "scenarioStates": ["выкл","горит","мигает","выкл"]
          }
        ]
      },
      {
        "id": 93,
        "name": "ПС-14",
        "block": "ENERGY",
        "states": ["выключено", "норма", "не норма", "авария"],
        "registers": [
          {
            "address": 11,
            "type": "светодиод",
            "description": "мачты освещения",
            "scenarioStates": ["выкл","горит","мигает","выкл"]
          },
          {
            "address": 12,
            "type": "адресный светодиод 5В",
            "description": "индикация объекта",
            "scenarioStates": ["выкл","синий (горит)","красный (мигает)","красный (мигает)"]
          },
          {
            "address": 13,
            "type": "светодиод",
            "description": "трансформатор",
            "scenarioStates": ["выкл","выкл","выкл","искрит"]
          }
        ]
      },
      {
        "id": 94,
        "name": "ПС-15",
        "block": "ENERGY",
        "states": ["выключено", "норма", "не норма", "авария"],
        "registers": [
          {
            "address": 14,
            "type": "светодиод",
            "description": "мачты освещения",
            "scenarioStates": ["выкл","горит","мигает","выкл"]
          },
          {
            "address": 15,
            "type": "адресный светодиод 5В",
            "description": "индикация объекта",
            "scenarioStates": ["выкл","синий (горит)","красный (мигает)","красный (мигает)"]
          },
          {
            "address": 16,
            "type": "светодиод",
            "description": "трансформатор",
            "scenarioStates": ["выкл","выкл","выкл","искрит"]
          }
        ]
      },
      {
        "id": 95,
        "name": "БСС-07",
        "block": "COMMUNICATION",
        "states": ["выключено", "норма", "не норма", "авария"],
        "registers": [
          {
            "address": 17,
            "type": "светодиод",
            "description": "БСС",
            "scenarioStates": ["выкл","горит","мигает","выкл"]
          }
        ]
      },
      {
        "id": 96,
        "name": "Труба НЕФТЬ №2",
        "block": "OIL",
        "states": ["выключено", "норма", "не норма", "авария", "норма (Р)", "не норма (Р)"],
        "registers": [
          {
            "address": 18,
            "type": "адресная лента 5В (трубы)",
            "description": "трубопровод от края макета до Морского порта",
            "scenarioStates": ["выкл","синий (вперед)","синий (вперед рывками)","синий (горит)","синий (назад)","синий (назад рывками)"]
          }
        ]
      },
      {
        "id": 97,
        "name": "Дорожные фонари",
        "block": "CITY",
        "states": ["выключено", "норма"],
        "registers": [
          {
            "address": 19,
            "type": "светодиод",
            "description": "дорожные фонари",
            "scenarioStates": ["выкл","горит"]
          }
        ]
      }
    ]
  }
}

