{
  "module": {
    "id": 20,
    "ip": "10.10.10.20",
    "name": "20",
    "enable": true,
    "items": [
      {
        "id": 216,
        "name": "Логистический центр",
        "block": "TRANSPORT",
        "states": ["выключено", "норма", "не норма", "авария"],
        "registers": [
          {
            "address": 1,
            "type": "адресный светодиод 5В",
            "description": "индикация объекта",
            "scenarioStates": ["выкл","зеленый (мигает)","желтый (мигает)","красный (мигает)"]
          },
          {
            "address": 2,
            "type": "светодиод",
            "description": "окна зданий",
            "scenarioStates": ["выкл","горит","мигает","выкл"]
          }
        ]
      },
      {
        "id": 217,
        "name": "ЛЭП (отрезок №23)",
        "block": "ENERGY",
        "states": ["выключено", "норма", "не норма", "авария"],
        "registers": [
          {
            "address": 3,
            "type": "светодиод",
            "description": "ЛЭП (отрезок №23)",
            "scenarioStates": ["выкл","горит","мигает","выкл"]
          }
        ]
      },
      {
        "id": 218,
        "name": "ЛЭП (отрезок №22)",
        "block": "ENERGY",
        "states": ["выключено", "норма", "не норма", "авария"],
        "registers": [
          {
            "address": 4,
            "type": "светодиод",
            "description": "ЛЭП (отрезок №22)",
            "scenarioStates": ["выкл","горит","мигает","выкл"]
          }
        ]
      },
      {
        "id": 219,
        "name": "ЛЭП (отрезок №15)",
        "block": "ENERGY",
        "states": ["выключено", "норма", "не норма", "авария"],
        "registers": [
          {
            "address": 5,
            "type": "светодиод",
            "description": "ЛЭП (отрезок №15)",
            "scenarioStates": ["выкл","горит","мигает","выкл"]
          }
        ]
      },
      {
        "id": 220,
        "name": "Аэропорт",
        "block": "TRANSPORT",
        "states": ["выключено", "норма", "не норма", "авария"],
        "registers": [
          {
            "address": 6,
            "type": "адресный светодиод 5В",
            "description": "индикация объекта",
            "scenarioStates": ["выкл","зеленый (мигает)","выкл","красный (мигает)"]
          },
          {
            "address": 7,
            "type": "светодиод",
            "description": "окна зданий",
            "scenarioStates": ["выкл","горит","мигает","выкл"]
          },
          {
            "address": 8,
            "type": "адресная лента 5В (аэропорт)",
            "description": "взлетная полоса",
            "scenarioStates": ["выкл","бегущие огни","мигает","выкл"]
          }
        ]
      },
      {
        "id": 221,
        "name": "ПС-25",
        "block": "ENERGY",
        "states": ["выключено", "норма", "не норма", "авария"],
        "registers": [
          {
            "address": 9,
            "type": "светодиод",
            "description": "мачты освещения",
            "scenarioStates": ["выкл","горит","мигает","выкл"]
          },
          {
            "address": 10,
            "type": "адресный светодиод 5В",
            "description": "индикация объекта",
            "scenarioStates": ["выкл","синий (горит)","красный (мигает)","красный (мигает)"]
          },
          {
            "address": 11,
            "type": "светодиод",
            "description": "трансформатор",
            "scenarioStates": ["выкл","выкл","выкл","искрит"]
          }
        ]
      },
      {
        "id": 222,
        "name": "Труба НЕФТЬ №7",
        "block": "OIL",
        "states": ["выключено", "норма", "не норма", "авария", "норма (Р)", "не норма (Р)"],
        "registers": [
          {
            "address": 12,
            "type": "адресная лента 5В (трубы)",
            "description": "трубопровод от края макета до Морского порта",
            "scenarioStates": ["выкл","синий (вперед)","синий (вперед рывками)","синий (горит)","синий (назад)","синий (назад рывками)"]
          }
        ]
      },
      {
        "id": 223,
        "name": "Дорожные фонари",
        "block": "CITY",
        "states": ["выключено", "норма"],
        "registers": [
          {
            "address": 13,
            "type": "светодиод",
            "description": "дорожные фонари",
            "scenarioStates": ["выкл","горит"]
          }
        ]
      }
    ]
  }
}