{
  "module": {
    "id": 102,
    "ip": "10.10.10.102",
    "name": "2б",
    "enable": true,
    "items": [
      {
        "id": 13,
        "name": "СЭС",
        "block": "ENERGY",
        "states": ["выключено", "норма", "не норма", "авария"],
        "registers": [
          {
            "address": 1,
            "type": "светодиод",
            "description": "мачты освещения",
            "scenarioStates": ["выкл","горит","мигает","выкл"]
          }, 
          {
            "address": 2,
            "type": "адресный светодиод 5В",
            "description": "индикация объекта",
            "scenarioStates": ["выкл","зеленый (мигает)","красный (горит)","красный (мигает)"]
          },
          {
            "address": 3,
            "type": "шаговый двигатель",
            "description": "солнечные панели",
            "scenarioStates": ["остановить","вращение CW","вращение в пределах","остановить"]
          }
        ]
      },
      {
        "id": 14,
        "name": "ЛЭП (отрезок №04.1)",
        "block": "ENERGY",
        "states": ["выключено", "норма", "не норма", "авария"],
        "registers": [
          {
            "address": 4,
            "type": "светодиод",
            "description": "ЛЭП (отрезок №04.1)",
            "scenarioStates": ["выкл","горит","мигает","выкл"]
          }
        ]
      },
      {
        "id": 15,
        "name": "ВЭС",
        "block": "ENERGY",
        "states": ["выключено", "норма", "не норма", "авария"],
        "registers": [
          {
            "address": 5,
            "type": "светодиод",
            "description": "мачты освещения",
            "scenarioStates": ["выкл","горит","мигает","выкл"]
          },
          {
            "address": 6,
            "type": "шаговый двигатель",
            "description": "лопасти (5 шт.)",
            "scenarioStates": ["остановить","вращение CW","вращение CW","остановить"]
          },
          {
            "address": 7,
            "type": "шаговый двигатель",
            "description": "лопасти (4 шт.)",
            "scenarioStates": ["остановить","вращение CW","остановить","остановить"]
          },
          {
            "address": 8,
            "type": "адресный светодиод 5В",
            "description": "индикация объекта",
            "scenarioStates": ["выкл","зеленый (мигает)","желтый (мигает)","красный (мигает)"]
          }
        ]
      },
      {
        "id": 16,
        "name": "ПС-03",
        "block": "ENERGY",
        "states": ["выключено", "норма", "не норма", "авария"],
        "registers": [
          {
            "address": 9,
            "type": "светодиод",
            "description": "мачты освещения",
            "scenarioStates": ["выкл","горит","мигает","выкл"]
          },
          {
            "address": 10,
            "type": "адресный светодиод 5В",
            "description": "индикация объекта",
            "scenarioStates": ["выкл","синий (горит)","красный (мигает)","красный (мигает)"]
          },
          {
            "address": 11,
            "type": "светодиод",
            "description": "трансформатор",
            "scenarioStates": ["выкл","выкл","выкл","искрит"]
          }
        ]
      },
      {
        "id": 17,
        "name": "ПС-04",
        "block": "ENERGY",
        "states": ["выключено", "норма", "не норма", "авария"],
        "registers": [
          {
            "address": 12,
            "type": "светодиод",
            "description": "мачты освещения",
            "scenarioStates": ["выкл","горит","мигает","выкл"]
          },
          {
            "address": 13,
            "type": "адресный светодиод 5В",
            "description": "индикация объекта",
            "scenarioStates": ["выкл","синий (горит)","красный (мигает)","красный (мигает)"]
          },
          {
            "address": 14,
            "type": "светодиод",
            "description": "трансформатор",
            "scenarioStates": ["выкл","выкл","выкл","искрит"]
          }
        ]
      },
      {
        "id": 18,
        "name": "БСС-03",
        "block": "COMMUNICATION",
        "states": ["выключено", "норма", "не норма", "авария"],
        "registers": [
          {
            "address": 15,
            "type": "светодиод",
            "description": "БСС",
            "scenarioStates": ["выкл","горит","мигает","выкл"]
          }
        ]
      },
      {
        "id": 19,
        "name": "Труба ГАЗ №01",
        "block": "OIL",
        "states": ["выключено", "норма", "не норма", "авария", "норма (Р)", "не норма (Р)"],
        "registers": [
          {
            "address": 16,
            "type": "адресная лента 5В (трубы)",
            "description": "трубопровод от ГРП 1 до Коксогазового завода",
            "scenarioStates": ["выкл","желтый (вперед)","желтый (вперед рывками)","желтый (горит)","желтый (назад)","желтый (назад рывками)"]
          }
        ]
      },
      {
        "id": 20,
        "name": "Дорожные фонари",
        "block": "CITY",
        "states": ["выключено", "норма"],
        "registers": [
          {
            "address": 17,
            "type": "светодиод",
            "description": "дорожные фонари",
            "scenarioStates": ["выкл","горит"]
          }
        ]
      }
    ]
  }
}
